2.240591049194335938e+00 1.566229611635208130e-01 7.649733684957027435e-03 1.451344728469848633e+00 4.547093063592910767e-02 4.298917651176452637e-01 1.496108770370483398e-01
4.265983030200004578e-02 3.078206500504165888e-04 1.660713111050426960e-03 1.320188312092795968e-04 5.383418756537139416e-04 1.576670561917126179e-03 3.844426572322845459e-02
2.606726251542568207e-02 1.427524402970448136e-04 1.733613549731671810e-03 1.090678233595099300e-05 7.844602077966555953e-05 6.520085153169929981e-04 2.344953455030918121e-02
9.563092142343521118e-03 7.401541370199993253e-05 1.132637844420969486e-03 1.614168104424607009e-05 1.741421510814689100e-05 3.349513281136751175e-04 7.987931370735168457e-03
2.572470344603061676e-03 5.336670074029825628e-05 8.530359482392668724e-04 2.889891766244545579e-05 1.259253622265532613e-05 2.026837464654818177e-04 1.421892317011952400e-03
1.834819326177239418e-03 4.360704770078882575e-05 8.453568443655967712e-04 2.697205673030111939e-05 1.593284287082497030e-05 1.435594604117795825e-04 7.593911723233759403e-04
1.639035297557711601e-03 3.283300247858278453e-05 8.320699562318623066e-04 2.093042166961822659e-05 1.202575731440447271e-05 8.836854976834729314e-05 6.528076482936739922e-04
1.499367645010352135e-03 2.647818837431259453e-05 8.163910242728888988e-04 1.480236551287816837e-05 9.673131899035070091e-06 5.668177254847250879e-05 5.753412260673940182e-04
1.392028527334332466e-03 2.256677180412225425e-05 8.022581459954380989e-04 9.959554517990909517e-06 8.235270797740668058e-06 3.819481207756325603e-05 5.108140176162123680e-04
1.306945690885186195e-03 1.974707265617325902e-05 7.889439002610743046e-04 6.581013622053433210e-06 7.077832833601860330e-06 2.654837044246960431e-05 4.580474342219531536e-04
1.237148186191916466e-03 1.740735933708492666e-05 7.755546830594539642e-04 4.327454917074646801e-06 6.043464509275509045e-06 1.880260788311716169e-05 4.150125896558165550e-04
1.177572412416338921e-03 1.530838380858767778e-05 7.615060312673449516e-04 2.852716988854808733e-06 5.131817488290835172e-06 1.343209805781953037e-05 3.793413634411990643e-04
1.124675502069294453e-03 1.341276583843864501e-05 7.464851369149982929e-04 1.891907345452636946e-06 4.361805167718557641e-06 9.602796126273460686e-06 3.489210794214159250e-04
1.076112268492579460e-03 1.178115599032025784e-05 7.303482270799577236e-04 1.260141857528651599e-06 3.734642859853920527e-06 6.879387001390568912e-06 3.221087099518626928e-04
1.098294393159449100e-03 1.183140284410910681e-05 7.180122192949056625e-04 7.597430339956190437e-06 2.622982901812065393e-05 7.278468274307670072e-06 3.273450129199773073e-04
9.883396560326218605e-04 9.655454050516709685e-06 6.951035466045141220e-04 5.608819719782331958e-07 2.877918632293585688e-06 4.039343821204965934e-06 2.761025680229067802e-04
2.226930111646652222e-03 2.511730417609214783e-05 7.683297153562307358e-04 1.348978257738053799e-04 7.028963300399482250e-04 4.348048969404771924e-05 5.522082792595028877e-04
9.088517399504780769e-04 9.287954526371322572e-06 6.562841008417308331e-04 2.609979787848715205e-07 2.501079279682016931e-06 3.920096787624061108e-06 2.365975087741389871e-04
8.709118701517581940e-04 9.754720849741715938e-06 6.354925571940839291e-04 1.876059769756466267e-07 2.468958655299502425e-06 4.444538717507384717e-06 2.185635094065219164e-04
8.344848174601793289e-04 1.058799807651666924e-05 6.141721387393772602e-04 1.916443750360485865e-07 2.205475539085455239e-06 5.453533503896323964e-06 2.018740779021754861e-04
7.987837307155132294e-04 1.184952270705252886e-05 5.921756965108215809e-04 1.827910409701871686e-07 2.496529532436397858e-06 6.197344191605225205e-06 1.858818868640810251e-04
7.632162305526435375e-04 1.346787576039787382e-05 5.695000872947275639e-04 2.393981617387908045e-07 2.313293407496530563e-06 6.920125088072381914e-06 1.707754709059372544e-04
7.317384006455540657e-04 1.520567275292705745e-05 5.481620319187641144e-04 5.872743145118874963e-07 1.698172695796529297e-06 8.009295925148762763e-06 1.580759853823110461e-04
6.971802795305848122e-04 1.747947862895671278e-05 5.249962559901177883e-04 3.669379964321706211e-07 2.439374839013908058e-06 8.216796231863554567e-06 1.436815073247998953e-04
6.645495886914432049e-04 1.986115603358484805e-05 5.027085426263511181e-04 4.468356564757414162e-07 2.273407062602927908e-06 8.355747922905720770e-06 1.309038343606516719e-04
7.214815123006701469e-04 2.164382385672070086e-05 4.922539228573441505e-04 1.181741481559583917e-05 4.120215453440323472e-05 1.193808930111117661e-05 1.426260860171169043e-04
6.045133341103792191e-04 2.448193117743358016e-05 4.607759183272719383e-04 5.313601150191971101e-07 2.077220187857165001e-06 8.384154170926194638e-06 1.082627568393945694e-04
5.749224219471216202e-04 2.680972102098166943e-05 4.402934864629060030e-04 5.520649892787332647e-07 1.854546667345857713e-06 7.961456503835506737e-06 9.745109855430200696e-05
5.489058094099164009e-04 2.858855077647604048e-05 4.212238418404012918e-04 1.310284687860985287e-06 1.466885350964730605e-06 7.638471288373693824e-06 8.867779979482293129e-05
5.205266061238944530e-04 3.042105527129024267e-05 4.018725303467363119e-04 5.044284989708103240e-07 1.911335630211397074e-06 7.223740794870536774e-06 7.859354082029312849e-05
4.933897289447486401e-04 3.205329994671046734e-05 3.828654589597135782e-04 5.474286695061891805e-07 1.298833467444637790e-06 6.569724519067676738e-06 7.005497172940522432e-05
4.664261650759726763e-04 3.339983231853693724e-05 3.638033522292971611e-04 5.425983431450731587e-07 1.028325186780421063e-06 5.999377663101768121e-06 6.165265222080051899e-05
1.663191709667444229e-03 4.205129516776651144e-05 4.296002152841538191e-04 1.614906213944777846e-04 6.853294908069074154e-04 5.221298488322645426e-05 2.925070584751665592e-04
4.175724752712994814e-04 3.499703234410844743e-05 3.273441689088940620e-04 5.720343096982105635e-07 1.190864395539392717e-06 5.014423550164792687e-06 4.845395233132876456e-05
3.926344797946512699e-04 3.580741031328216195e-05 3.086072392761707306e-04 6.356692097142513376e-07 6.194848651830398012e-07 4.544712737697409466e-06 4.241999340592883527e-05
3.683977993205189705e-04 3.664994073915295303e-05 2.898838720284402370e-04 6.591390615540149156e-07 4.709345091669092653e-07 4.067695044795982540e-06 3.666622433229349554e-05
3.451711672823876143e-04 3.760589243029244244e-05 2.713727590162307024e-04 6.948056352484854870e-07 3.764066889289097162e-07 3.626391617217450403e-06 3.149492476950399578e-05
3.270677989348769188e-04 3.823724546236917377e-05 2.557062543928623199e-04 9.576654065313050523e-07 4.706787137820356293e-07 3.210990598745411262e-06 2.848495569196529686e-05
3.075415734201669693e-04 3.965237556258216500e-05 2.386379055678844452e-04 9.156917144537146669e-07 3.439955662543070503e-07 3.025356363650644198e-06 2.496624074410647154e-05
2.900482795666903257e-04 4.134007031098008156e-05 2.230436948593705893e-04 9.309527513323700987e-07 3.636284304775472265e-07 2.738943521762848832e-06 2.163101453334093094e-05
2.744884695857763290e-04 4.313878525863401592e-05 2.086957392748445272e-04 9.536790912534343079e-07 4.140878786529356148e-07 2.512836317691835575e-06 1.877336944744456559e-05
8.683699415996670723e-04 4.885811722488142550e-05 2.404352853773161769e-04 8.752422581892460585e-05 3.305740247014909983e-04 2.706001214392017573e-05 1.339182636002078652e-04
2.509293553885072470e-04 4.561925743473693728e-05 1.855674636317417026e-04 1.170683049167564604e-06 3.788661047110508662e-07 2.332533995286212303e-06 1.586054531799163669e-05
2.401103702140972018e-04 4.716364855994470417e-05 1.750677329255267978e-04 1.094981030291819479e-06 5.009910069020406809e-07 2.240849198642536066e-06 1.404216527589596808e-05
2.303296641912311316e-04 4.828209421248175204e-05 1.657232060097157955e-04 1.065646983988699503e-06 5.610859830085246358e-07 2.190073246310930699e-06 1.250754576176404953e-05
2.213213883806020021e-04 4.901324064121581614e-05 1.572858163854107261e-04 1.049739125846826937e-06 5.801051656817435287e-07 2.178455360990483314e-06 1.121402056014630944e-05
2.157842100132256746e-04 4.820944741368293762e-05 1.509617140982300043e-04 1.570575022924458608e-06 9.446135891266749240e-07 2.289099711560993455e-06 1.180876552098197863e-05
2.060736587736755610e-04 4.879973494098521769e-05 1.434847072232514620e-04 1.056717565006692894e-06 5.374787974687933456e-07 2.255012987006921321e-06 9.940024028765037656e-06
1.985556446015834808e-04 4.872648787568323314e-05 1.369466917822137475e-04 1.047837599799095187e-06 5.811698997604253236e-07 2.306044507349724881e-06 8.947408787207677960e-06
1.973300677491351962e-04 4.798961163032799959e-05 1.318313152296468616e-04 1.684309381744242273e-06 3.162585244353977032e-06 2.669151854206575081e-06 9.993088497139979154e-06
1.856163144111633301e-04 4.744012767332606018e-05 1.262156147276982665e-04 9.421277127330540679e-07 7.957606271702388767e-07 2.426093942631268874e-06 7.796574209351092577e-06
1.789339585229754448e-04 4.690931746154092252e-05 1.207014211104251444e-04 1.045335693561355583e-06 5.423104312285431661e-07 2.612440766824875027e-06 7.123134764697169885e-06
1.735121622914448380e-04 4.619181345333345234e-05 1.169919560197740793e-04 7.719764312241750304e-07 3.794557414948940277e-07 2.519816916901618242e-06 6.657131962128914893e-06
1.679646957200020552e-04 4.508615893428213894e-05 1.124340051319450140e-04 8.181734187928668689e-07 2.953108833025908098e-07 2.758105438260827214e-06 6.572937309101689607e-06
1.621801202418282628e-04 4.479441486182622612e-05 1.076579865184612572e-04 7.266148713824804872e-07 3.384116666893532965e-07 2.811663080137805082e-06 5.851034529769094661e-06
1.581517135491594672e-04 4.390081085148267448e-05 1.031474166666157544e-04 1.751969534780073445e-06 7.059952622512355447e-07 3.413382501094019972e-06 5.232134299149038270e-06
2.532894723117351532e-04 4.617401646100915968e-05 1.068766723619773984e-04 1.430887186870677397e-05 5.906777005293406546e-05 6.455813036154722795e-06 2.040633444266859442e-05
1.476024190196767449e-04 4.249620542395859957e-05 9.632647561375051737e-05 5.920393846281513106e-07 2.220330088675837032e-07 3.128800926788244396e-06 4.836852440348593518e-06
1.662243448663502932e-04 4.119432560401037335e-05 9.430037607671692967e-05 3.991556241089710966e-06 1.161632098956033587e-05 4.656083547160960734e-06 1.046567922458052635e-05
1.382562477374449372e-04 4.106844789930619299e-05 8.896477083908393979e-05 5.334042612048506271e-07 1.771868625155548216e-07 3.185337618560879491e-06 4.327102033130358905e-06
1.403078931616619229e-04 3.949557867599651217e-05 8.754376176511868834e-05 3.353331976541085169e-06 1.522540514997672290e-06 4.337611699156695977e-06 4.055081717524444684e-06
1.305467594647780061e-04 3.989348988397978246e-05 8.318864274770021439e-05 4.132018602831522003e-07 2.886597485485253856e-07 3.176795189574477263e-06 3.585955482776626013e-06
1.271014189114794135e-04 3.905429548467509449e-05 8.012574107851833105e-05 4.776080686497152783e-07 5.338688424672000110e-07 3.225936097805970348e-06 3.683966269818483852e-06
1.224693551193922758e-04 3.858156196656636894e-05 7.678720430703833699e-05 3.934559913432167377e-07 1.059101180089783156e-07 3.185779405612265691e-06 3.415445462451316416e-06
1.243550941580906510e-04 3.807287066592834890e-05 7.627399463672190905e-05 2.374952373429550789e-06 7.069169782880635466e-07 3.312639819341711700e-06 3.613711442085332237e-06
1.161925320047885180e-04 3.743471825146116316e-05 7.233472570078447461e-05 2.787110986446350580e-07 9.254361543753475416e-08 3.106009671682841145e-06 2.945815822386066429e-06
1.136528735514730215e-04 3.674628169392235577e-05 6.978782766964286566e-05 4.071085868417867459e-07 5.197018140279396903e-07 3.043008291570004076e-06 3.148944870190462098e-06
1.094142280635423958e-04 3.632900552474893630e-05 6.688406574539840221e-05 2.979841440264863195e-07 5.543665793084073812e-08 2.935821839855634607e-06 2.911919409598340280e-06
2.749382983893156052e-04 4.734194226330146194e-05 6.859077984699979424e-05 1.071135993697680533e-04 1.560571399750187993e-05 2.958516597573179752e-05 6.701091933791758493e-06
1.040919960360042751e-04 3.505813219817355275e-05 6.340409890981391072e-05 2.075070142382173799e-07 4.374195228251664957e-08 2.812596903822850436e-06 2.565916020103031769e-06
2.448850311338901520e-03 7.356486457865685225e-05 2.069548063445836306e-04 2.870180178433656693e-04 1.339483074843883514e-03 9.599394252290949225e-05 4.458356997929513454e-04
9.795433288672938943e-05 3.420596112846396863e-05 5.837687785970047116e-05 2.551372801917750621e-07 8.572351362090557814e-08 2.517546136004966684e-06 2.513090066713630222e-06
6.451199296861886978e-04 6.975675933063030243e-05 6.396820390364155173e-05 3.362574789207428694e-04 7.163226837292313576e-05 8.556562534067779779e-05 1.793960655049886554e-05
9.322809637524187565e-05 3.283597470726817846e-05 5.553560913540422916e-05 1.665397633132670308e-07 2.607203697380100493e-08 2.411346258668345399e-06 2.252557123938458972e-06
8.998993871500715613e-05 3.252107853768393397e-05 5.295006485539488494e-05 1.744461570751809631e-07 2.017112876728788251e-08 2.236879026895621791e-06 2.087305574605125003e-06
8.895911014406010509e-05 3.171657954226247966e-05 5.077255264041014016e-05 3.333827010010281811e-07 8.412779948230308946e-07 2.401641268079401925e-06 2.893679265980608761e-06
4.045815439894795418e-04 4.595531936502084136e-05 5.476611113408580422e-05 1.906185934785753489e-04 3.769671457121148705e-05 6.501374446088448167e-05 1.053107553161680698e-05
8.300911576952785254e-05 3.048272810701746494e-05 4.832023114431649446e-05 1.536064644369616872e-07 1.503622648613145429e-08 2.000130280066514388e-06 2.037375907093519345e-06
7.989146979525685310e-05 2.997894443979021162e-05 4.595396967488341033e-05 1.672293308274674928e-07 1.319932607657392509e-08 1.881777166090614628e-06 1.896352614494389854e-06
7.787454524077475071e-05 2.915538243541959673e-05 4.430533954291604459e-05 4.715739123639650643e-07 4.092904859476220736e-08 2.067208015432697721e-06 1.834108843468129635e-06
7.750558870611712337e-05 2.776660039671696723e-05 4.420828190632164478e-05 7.541880222561303526e-07 5.559144256039871834e-07 2.263710712213651277e-06 1.956898813659790903e-06
7.271933282027021050e-05 2.785425567708443850e-05 4.115564297535456717e-05 1.774155862221959978e-07 1.132821836336006527e-08 1.679770662121882197e-06 1.840916411310900003e-06
2.895859070122241974e-04 3.550980181898921728e-05 4.764209006680175662e-05 1.130640303017571568e-04 3.898115028277970850e-05 4.046600224683061242e-05 1.392282501910813153e-05
6.960469909245148301e-05 2.633503572724293917e-05 3.954074782086536288e-05 2.803664642669900786e-07 2.629195421377517050e-07 1.511572918388992548e-06 1.674062787060393021e-06
6.646241672569885850e-05 2.553456761233974248e-05 3.708044459926895797e-05 2.089840620556060458e-07 1.401963061198330252e-07 1.621992396394489333e-06 1.876227202046720777e-06
6.342562846839427948e-05 2.476717781974002719e-05 3.541303885867819190e-05 1.759767656039912254e-07 1.024113771563861519e-08 1.436336219740041997e-06 1.622848913029883988e-06
1.730804360704496503e-04 3.178333645337261260e-05 3.915378692909143865e-05 6.103548366809263825e-05 1.317066562478430569e-05 2.010980097111314535e-05 7.827366971469018608e-06
1.029940976877696812e-04 2.276744999107904732e-05 3.867587656714022160e-05 1.026478003041120246e-06 2.813000537571497262e-05 1.610409071872709319e-06 1.078387685993220657e-05
5.772041549789719284e-05 2.268422758788801730e-05 3.193718293914571404e-05 1.835264384908441571e-07 1.611893551967114036e-08 1.330159534518315922e-06 1.569202595419483259e-06
6.663172098342329264e-05 2.277713974763173610e-05 3.243308674427680671e-05 7.183929938037181273e-06 2.356673149961352465e-07 2.326480398551211692e-06 1.675413500379363541e-06
5.395662446971982718e-05 2.126419167325366288e-05 2.966577812912873924e-05 1.763937262921899674e-07 1.931972981594753946e-08 1.322276489190699067e-06 1.508657760496134870e-06
7.924663805169984698e-05 2.278465217386838049e-05 3.056527930311858654e-05 1.471090035920497030e-05 3.660975835373392329e-06 4.577027084451401606e-06 2.947793973362422548e-06
5.032523768022656441e-05 1.973715916392393410e-05 2.775049506453797221e-05 1.906740010326757329e-07 9.358278596494074009e-09 1.245020825990650337e-06 1.392529838994960301e-06
5.240930840955115855e-05 1.888106089609209448e-05 2.785448668873868883e-05 5.032297849538736045e-07 1.546346766190254129e-06 1.122315893553604838e-06 2.501864400983322412e-06
4.743793397210538387e-05 1.849740328907500952e-05 2.583202149253338575e-05 2.560998098033451242e-07 4.635192851765168598e-08 1.389515091432258487e-06 1.416542772858520038e-06
4.639540566131472588e-05 1.796587093849666417e-05 2.554747879912611097e-05 2.974289543544728076e-07 1.397648787815342075e-07 1.115120198846852873e-06 1.329743554379092529e-06
4.414084105519577861e-05 1.730080475681461394e-05 2.421443787170574069e-05 2.003829138175206026e-07 9.351037277838258888e-09 1.185080805043980945e-06 1.230783936989610083e-06
4.809818346984684467e-05 1.626872290216851979e-05 2.558668893470894545e-05 7.867613476264523342e-07 2.094569708788185380e-06 1.586124312780157197e-06 1.775315467966720462e-06
6.927033246029168367e-05 1.620125294721219689e-05 2.376666634518187493e-05 6.627734364883508533e-06 1.157300175691489130e-05 4.497893769439542666e-06 6.603786005143774673e-06
4.066793917445465922e-05 1.580004209245089442e-05 2.230769496236462146e-05 2.020133393898504437e-07 9.155899149959623173e-09 1.180796516564441845e-06 1.168235257864580490e-06
3.907571226591244340e-05 1.519545276096323505e-05 2.145069811376743019e-05 2.070354838679122622e-07 9.886281127080565057e-09 1.135329739554435946e-06 1.077310116670560092e-06
1.530446570541244000e-05 4.385809916129801422e-06 9.040442819241434336e-06 1.718210995704794186e-07 8.108926863314991351e-08 1.094274239221704192e-06 5.310291726345894858e-07
6.752291028533363715e-06 3.044057393708499148e-06 3.061450343011529185e-06 3.337375176215573447e-08 3.027187744919501711e-08 2.846060169758857228e-07 2.985311482461838750e-07
4.793940206582192332e-06 1.992370698644663207e-06 2.309883029738557525e-06 8.899282022412080551e-08 7.152057612813678134e-09 1.831445786137919640e-07 2.123972109302485478e-07
3.149300937366206199e-06 1.365325033475528471e-06 1.412353981322667096e-06 3.793982727984257508e-08 5.255861523778548872e-09 1.603293213747747359e-07 1.680967613992834231e-07
2.294237219757633284e-06 9.433237551093043294e-07 1.038003119901986793e-06 6.703678678832147853e-08 5.666614288912796837e-09 1.081892762044844858e-07 1.320177460684135440e-07
