1.477672767639160156e+01 7.879061698913574219e+00 8.811030983924865723e-01 3.935711860656738281e+00 4.264361262321472168e-01 9.965819120407104492e-01 6.578323245048522949e-01
9.686207175254821777e-01 5.159155000001192093e-03 2.037728577852249146e-02 2.105595078319311142e-03 7.461749482899904251e-03 4.625385701656341553e-01 4.709783494472503662e-01
9.473231434822082520e-01 3.948765806853771210e-03 1.873547397553920746e-02 1.608903752639889717e-03 6.176938768476247787e-03 4.589352607727050781e-01 4.579177796840667725e-01
9.168297052383422852e-01 3.581934608519077301e-03 1.768119446933269501e-02 1.365156495012342930e-03 4.712396301329135895e-03 4.541753530502319336e-01 4.353137016296386719e-01
8.696757555007934570e-01 4.183854442089796066e-03 2.187068201601505280e-02 1.338714151643216610e-03 4.809978418052196503e-03 4.451397359371185303e-01 3.923327922821044922e-01
8.072722554206848145e-01 5.177509505301713943e-03 2.761735394597053528e-02 1.360545866191387177e-03 5.390823818743228912e-03 4.312263429164886475e-01 3.364996910095214844e-01
7.525315284729003906e-01 7.158107124269008636e-03 2.642206661403179169e-02 2.059754915535449982e-03 5.242164246737957001e-03 4.153853058815002441e-01 2.962641119956970215e-01
6.673828363418579102e-01 9.566047228872776031e-03 2.397168427705764771e-02 2.338070422410964966e-03 7.087606936693191528e-03 3.745751082897186279e-01 2.498442828655242920e-01
3.816106617450714111e-01 2.395922504365444183e-02 1.545885391533374786e-02 4.265144001692533493e-03 4.407183267176151276e-03 2.130254507064819336e-01 1.204947754740715027e-01
7.617556303739547729e-02 1.656336151063442230e-02 7.116108667105436325e-03 1.078812987543642521e-03 9.832991054281592369e-04 3.866702318191528320e-02 1.176696270704269409e-02
3.321319445967674255e-02 1.257246453315019608e-02 4.487142432481050491e-03 2.531828649807721376e-04 2.522128634154796600e-04 1.261478383094072342e-02 3.033408429473638535e-03
2.723525278270244598e-02 1.146995835006237030e-02 3.748930525034666061e-03 4.232375358697026968e-04 1.419125037500634789e-04 9.223615750670433044e-03 2.227597171440720558e-03
2.402255311608314514e-02 1.031850557774305344e-02 3.472613403573632240e-03 4.859812324866652489e-04 1.009779734886251390e-04 7.868151180446147919e-03 1.776324352249503136e-03
2.248512953519821167e-02 9.751417674124240875e-03 3.941197413951158524e-03 2.220220630988478661e-04 7.909817941254004836e-05 6.958531215786933899e-03 1.532862079329788685e-03
1.950276084244251251e-02 8.184745907783508301e-03 3.243896178901195526e-03 4.762592143379151821e-04 8.456488285446539521e-05 6.275607272982597351e-03 1.237689051777124405e-03
1.778893172740936279e-02 7.373777683824300766e-03 3.229000139981508255e-03 4.311011871322989464e-04 7.606315193697810173e-05 5.635226145386695862e-03 1.043763011693954468e-03
4.328456148505210876e-02 1.358416862785816193e-02 1.540836505591869354e-02 1.167396432720124722e-03 4.585678223520517349e-03 5.770840682089328766e-03 2.768109785392880440e-03
1.516936533153057098e-02 6.126427557319402695e-03 3.259819233790040016e-03 3.476488636806607246e-04 7.037672912701964378e-05 4.606557078659534454e-03 7.585359853692352772e-04
1.413591857999563217e-02 5.659815389662981033e-03 3.279629861935973167e-03 3.230468428228050470e-04 7.174380152719095349e-05 4.158191382884979248e-03 6.434920360334217548e-04
5.840002372860908508e-02 8.439675904810428619e-03 2.672375366091728210e-02 3.602205542847514153e-03 1.122630573809146881e-02 4.412296228110790253e-03 3.995788749307394028e-03
1.240752171725034714e-02 4.917673766613006592e-03 3.260679310187697411e-03 2.649102825671434402e-04 6.656500045210123062e-05 3.424872178584337234e-03 4.728201020043343306e-04
1.164834294468164444e-02 4.636935889720916748e-03 3.228909336030483246e-03 2.294274745509028435e-04 6.777051748940721154e-05 3.083222778514027596e-03 4.020771011710166931e-04
1.123624388128519058e-02 4.476831760257482529e-03 3.315366571769118309e-03 1.195115328300744295e-04 1.044504460878670216e-04 2.836019033566117287e-03 3.840647696051746607e-04
1.032508257776498795e-02 4.140397533774375916e-03 3.124129958450794220e-03 1.786811335477977991e-04 6.269085861276835203e-05 2.517113694921135902e-03 3.020692965947091579e-04
9.719834662973880768e-03 3.926435951143503189e-03 3.063888987526297569e-03 1.544021506560966372e-04 6.187373219290748239e-05 2.250690478831529617e-03 2.625447523314505816e-04
9.296633303165435791e-03 3.708562813699245453e-03 3.060926916077733040e-03 1.421071065124124289e-04 1.000334814307279885e-04 2.031832467764616013e-03 2.531708159949630499e-04
8.786584250628948212e-03 3.616455243900418282e-03 2.959222998470067978e-03 6.824746378697454929e-05 8.184318721760064363e-05 1.835380680859088898e-03 2.254354476463049650e-04
8.182991296052932739e-03 3.372072242200374603e-03 2.844012342393398285e-03 1.003783327178098261e-04 5.178095307201147079e-05 1.623142859898507595e-03 1.916049222927540541e-04
7.837180048227310181e-03 3.295285394415259361e-03 2.763147000223398209e-03 4.901127613265998662e-05 6.031196971889585257e-05 1.481931074522435665e-03 1.874934241641312838e-04
7.344581186771392822e-03 3.066441277042031288e-03 2.679653698578476906e-03 7.586005813209339976e-05 4.344524131738580763e-05 1.310616265982389450e-03 1.685648894635960460e-04
8.789486251771450043e-03 3.294700989499688148e-03 3.112927079200744629e-03 4.760459414683282375e-04 3.549571265466511250e-04 1.268984749913215637e-03 2.818709181156009436e-04
6.656005978584289551e-03 2.797012450173497200e-03 2.533267484977841377e-03 4.221486233291216195e-05 5.069138569524511695e-05 1.071320031769573689e-03 1.614999491721391678e-04
6.289143115282058716e-03 2.626634435728192329e-03 2.465904457494616508e-03 5.789713759440928698e-05 3.119846587651409209e-05 9.576118318364024162e-04 1.498969504609704018e-04
6.001566071063280106e-03 2.512423554435372353e-03 2.395224291831254959e-03 3.914370608981698751e-05 2.921819395851343870e-05 8.759006159380078316e-04 1.496554177720099688e-04
5.719816312193870544e-03 2.368052024394273758e-03 2.348814858123660088e-03 4.264711242285557091e-05 2.714534639380872250e-05 7.871758425608277321e-04 1.459817722206935287e-04
6.788888014853000641e-03 2.360871527343988419e-03 2.963170409202575684e-03 1.411375560564920306e-04 3.613492008298635483e-04 7.358883158303797245e-04 2.264706563437357545e-04
5.263797938823699951e-03 2.122844336554408073e-03 2.280725631862878799e-03 3.610167550505138934e-05 2.312649121449794620e-05 6.574246217496693134e-04 1.435751473763957620e-04
5.064295139163732529e-03 2.009571995586156845e-03 2.261385554447770119e-03 3.269943044870160520e-05 2.182271964557003230e-05 5.967605975456535816e-04 1.420547196175903082e-04
4.937129095196723938e-03 1.925984863191843033e-03 2.248261589556932449e-03 2.498335925338324159e-05 3.088784797000698745e-05 5.587874911725521088e-04 1.482240331824868917e-04
4.739977419376373291e-03 1.819551689550280571e-03 2.223897958174347878e-03 2.872134973586071283e-05 1.887518010335043073e-05 5.074025248177349567e-04 1.415284350514411926e-04
4.594033583998680115e-03 1.731441123411059380e-03 2.214459469541907310e-03 2.589230280136689544e-05 1.848725878517143428e-05 4.639838880393654108e-04 1.397698069922626019e-04
4.480040632188320160e-03 1.657602377235889435e-03 2.207177458330988884e-03 2.346479413972701877e-05 2.191556995967403054e-05 4.308602074161171913e-04 1.390204270137473941e-04
4.513214807957410812e-03 1.606771140359342098e-03 2.249528886750340462e-03 2.439833770040422678e-05 7.228524918900802732e-05 4.037470789626240730e-04 1.564847480040043592e-04
4.244581796228885651e-03 1.528245164081454277e-03 2.177538350224494934e-03 2.012490585912019014e-05 1.619288923393469304e-05 3.673762257676571608e-04 1.351040555164217949e-04
3.255005553364753723e-02 1.380425784736871719e-02 8.029303513467311859e-03 5.133586004376411438e-03 2.527603181079030037e-03 2.144445898011326790e-03 9.108590311370790005e-04
4.064637701958417892e-03 1.437194645404815674e-03 2.145317150279879570e-03 1.687063740973826498e-05 1.550190427224151790e-05 3.178332699462771416e-04 1.319198927376419306e-04
4.202736075967550278e-03 1.517363940365612507e-03 2.140545286238193512e-03 7.215922960313037038e-05 2.877736733353231102e-05 3.112595877610146999e-04 1.326306955888867378e-04
3.895682981237769127e-03 1.343796611763536930e-03 2.120798453688621521e-03 1.445479028916452080e-05 1.399713437422178686e-05 2.767021069303154945e-04 1.259339624084532261e-04
5.140364170074462891e-03 2.033215947449207306e-03 2.224788302555680275e-03 2.999955904670059681e-04 6.162624049466103315e-05 3.850215871352702379e-04 1.357167056994512677e-04
3.752924501895904541e-03 1.275365008041262627e-03 2.086385851725935936e-03 1.221927777805831283e-05 1.339986010862048715e-05 2.436749491607770324e-04 1.218797042383812368e-04
1.248675584793090820e-02 3.649307880550622940e-03 5.314934067428112030e-03 9.020777652040123940e-04 1.522062113508582115e-03 3.930186794605106115e-04 7.053540321066975594e-04
1.673752069473266602e-02 7.195409387350082397e-03 4.740511998534202576e-03 2.486782614141702652e-03 9.048800566233694553e-04 9.988904930651187897e-04 4.110470472369343042e-04
3.564278595149517059e-03 1.190213952213525772e-03 2.035316312685608864e-03 9.355575457448139787e-06 1.233732200489612296e-05 2.028879243880510330e-04 1.141674583777785301e-04
1.075010001659393311e-02 2.623579464852809906e-03 5.363513715565204620e-03 5.874006310477852821e-04 1.257000607438385487e-03 3.030582156497985125e-04 6.155471201054751873e-04
4.217336419969797134e-03 1.300859963521361351e-03 2.383351791650056839e-03 6.143978680483996868e-05 1.244554150616750121e-04 1.899340859381482005e-04 1.572953624418005347e-04
3.403680864721536636e-03 1.125413458794355392e-03 1.985383685678243637e-03 7.689985068282112479e-06 9.494553523836657405e-06 1.698620617389678955e-04 1.058372145052999258e-04
3.350014565512537956e-03 1.100825029425323009e-03 1.962701324373483658e-03 7.416589141939766705e-06 1.105271985579747707e-05 1.632171770324930549e-04 1.048016929416917264e-04
3.323414362967014313e-03 1.084116869606077671e-03 1.965947216376662254e-03 6.117440534580964595e-06 1.087930286303162575e-05 1.554421323817223310e-04 1.009114566841162741e-04
3.310900181531906128e-03 1.072151237167418003e-03 1.941534806974232197e-03 1.371699181618168950e-05 3.018383722519502044e-05 1.495028118370100856e-04 1.038103364408016205e-04
4.786510020494461060e-03 2.079285914078354836e-03 1.937484252266585827e-03 4.074289172422140837e-04 9.108778613153845072e-06 2.536823158152401447e-04 9.951963147614151239e-05
1.217339280992746353e-02 1.378344837576150894e-03 6.995650939643383026e-03 1.200608166982419789e-04 2.447186037898063660e-03 1.766179921105504036e-04 1.055532018654048443e-03
3.392128972336649895e-03 1.169092836789786816e-03 1.914298511110246181e-03 4.491265281103551388e-05 2.820495137711986899e-05 1.408280659234151244e-04 9.479218715569004416e-05
3.093590727075934410e-03 1.005464349873363972e-03 1.859086914919316769e-03 5.270366727927466854e-06 1.266470553673570976e-05 1.189639879157766700e-04 9.214058081852272153e-05
3.100761445239186287e-03 1.007662154734134674e-03 1.851254375651478767e-03 1.088007502403343096e-05 2.066122397081926465e-05 1.178910606540739536e-04 9.241254883818328381e-05
3.434430109336972237e-03 1.061365590430796146e-03 1.955516869202256203e-03 6.858634878881275654e-05 9.566066728439182043e-05 1.372463448205962777e-04 1.160540996352210641e-04
3.258600132539868355e-03 1.129930373281240463e-03 1.827345462515950203e-03 8.478581003146246076e-05 7.026184448477579281e-06 1.216724194819107652e-04 8.784005331108346581e-05
3.292633686214685440e-03 1.116580329835414886e-03 1.819772296585142612e-03 1.115488703362643719e-04 1.530544432171154767e-05 1.439926418242976069e-04 8.543411968275904655e-05
1.987088099122047424e-02 4.755822941660881042e-03 8.843530900776386261e-03 1.535600051283836365e-03 2.851579338312149048e-03 6.464106845669448376e-04 1.237935386598110199e-03
2.858605002984404564e-03 9.060482843779027462e-04 1.766762929037213326e-03 5.333867648005252704e-06 8.318987966049462557e-06 9.241260704584419727e-05 7.972810999490320683e-05
2.842689398676156998e-03 9.046672494150698185e-04 1.746520865708589554e-03 8.412752322328742594e-06 1.404619615641422570e-05 8.819020877126604319e-05 8.085242006927728653e-05
3.296226728707551956e-03 1.094697159714996815e-03 1.789556001313030720e-03 1.325558696407824755e-04 5.309996777214109898e-05 1.362112088827416301e-04 9.010636858874931931e-05
2.763934200629591942e-03 8.724387153051793575e-04 1.723107881844043732e-03 5.023798621550668031e-06 6.742702225892571732e-06 8.152669761329889297e-05 7.509427086915820837e-05
2.761451294645667076e-03 8.748118416406214237e-04 1.716654165647923946e-03 4.044461093144491315e-06 1.469885137339588255e-05 7.708161137998104095e-05 7.416027801809832454e-05
2.960786921903491020e-03 9.148847311735153198e-04 1.785250031389296055e-03 5.448207593872211874e-05 2.833544567693024874e-05 9.647490514907985926e-05 8.135964890243485570e-05
2.697177696973085403e-03 8.365545072592794895e-04 1.691273530013859272e-03 8.988692570710554719e-06 1.368291123071685433e-05 7.484066009055823088e-05 7.183742854977026582e-05
3.765070112422108650e-03 1.023043994791805744e-03 2.241494599729776382e-03 6.452646630350500345e-05 2.095525560434907675e-04 7.603862468386068940e-05 1.504142564954236150e-04
6.997145712375640869e-03 3.478809492662549019e-03 1.833993010222911835e-03 1.026218873448669910e-03 1.140842359745875001e-04 4.308717034291476011e-04 1.131689277826808393e-04
2.792924176901578903e-03 8.389383438043296337e-04 1.711673918180167675e-03 3.429586649872362614e-05 5.126625910634174943e-05 7.869701948948204517e-05 7.805266068316996098e-05
2.897979225963354111e-03 8.629940566606819630e-04 1.755908364430069923e-03 3.241725789848715067e-05 8.488709863740950823e-05 7.059556082822382450e-05 9.117688750848174095e-05
2.665123902261257172e-03 8.320583729073405266e-04 1.679257140494883060e-03 9.277378921979106963e-06 1.338755737378960475e-05 5.911508196732029319e-05 7.202844426501542330e-05
2.545589115470647812e-03 7.788664661347866058e-04 1.620238996110856533e-03 8.134633390000090003e-06 1.218143734149634838e-05 6.056814527255482972e-05 6.559934990946203470e-05
3.363610012456774712e-03 8.056503138504922390e-04 2.069311449304223061e-03 2.970732020912691951e-05 2.462698030285537243e-04 6.747492443537339568e-05 1.451960852136835456e-04
2.514016581699252129e-03 7.699570269323885441e-04 1.615704968571662903e-03 3.659612048068083823e-06 7.574994924652855843e-06 5.386662451201118529e-05 6.325366848614066839e-05
2.790324389934539795e-03 7.674727821722626686e-04 1.749617862515151501e-03 1.241888458025641739e-05 1.084829273167997599e-04 5.561223588301800191e-05 9.671956649981439114e-05
2.559342188760638237e-03 7.606259314343333244e-04 1.635812106542289257e-03 2.106708052451722324e-05 1.634723048482555896e-05 5.873165719094686210e-05 6.675814074696972966e-05
2.433035755529999733e-03 7.454468286596238613e-04 1.572737819515168667e-03 3.418097776375361718e-06 4.081981387571431696e-06 4.940538929076865315e-05 5.794551179860718548e-05
2.542555099353194237e-03 7.483681547455489635e-04 1.602258067578077316e-03 2.339216916880104691e-05 4.107292625121772289e-05 5.726644303649663925e-05 7.019704207777976990e-05
2.386541571468114853e-03 7.268300396390259266e-04 1.549882697872817516e-03 2.862207111320458353e-06 3.696156682053697295e-06 4.675066884374246001e-05 5.651968240272253752e-05
2.390485722571611404e-03 7.311900844797492027e-04 1.544636557810008526e-03 3.756589194381376728e-06 8.652585165691561997e-06 4.543815521174110472e-05 5.681192124029621482e-05
2.369177294895052910e-03 7.080376963131129742e-04 1.536339637823402882e-03 1.155306199507322162e-05 8.415922820859123021e-06 4.944967076880857348e-05 5.538138429983519018e-05
2.546945121139287949e-03 7.647993043065071106e-04 1.584642799571156502e-03 5.041435360908508301e-05 2.139201569661963731e-05 6.354279321385547519e-05 6.215383473318070173e-05
2.379928715527057648e-03 6.982660270296037197e-04 1.540476339869201183e-03 1.239615721715381369e-05 2.329514973098412156e-05 4.729628562927246094e-05 5.819882790092378855e-05
2.502642339095473289e-03 6.913326797075569630e-04 1.643358264118432999e-03 8.221315511036664248e-06 4.527179407887160778e-05 4.471559805097058415e-05 6.974278221605345607e-05
4.392174072563648224e-03 7.131786551326513290e-04 2.795074367895722389e-03 3.494508928270079195e-05 5.039979005232453346e-04 5.770961797679774463e-05 2.872681652661412954e-04
2.404840895906090736e-03 7.730103097856044769e-04 1.493948861025273800e-03 3.506377834128215909e-05 7.017218194960150868e-06 4.556015846901573241e-05 5.024040001444518566e-05
2.312735188752412796e-03 7.024662336334586143e-04 1.505841384641826153e-03 6.806875262554967776e-06 5.402503120421897620e-06 3.944914715248160064e-05 5.276902447803877294e-05
2.256276784464716911e-03 6.752680055797100067e-04 1.484722946770489216e-03 3.913019099854864180e-06 4.856316081713885069e-06 3.798940815613605082e-05 4.952727613272145391e-05
2.842811634764075279e-03 8.132962393574416637e-04 1.733206445351243019e-03 4.592247205437161028e-05 1.084250470739789307e-04 4.581515895552001894e-05 9.614607552066445351e-05
3.884165082126855850e-03 6.777273374609649181e-04 2.535397885367274284e-03 2.682578633539378643e-05 3.909361839760094881e-04 4.816794898943044245e-05 2.051097108051180840e-04
2.538710832595825195e-03 8.096314850263297558e-04 1.487451954744756222e-03 1.017613394651561975e-04 6.391263923433143646e-06 8.388175774598494172e-05 4.959308716934174299e-05
2.634588629007339478e-03 6.791158812120556831e-04 1.669639255851507187e-03 2.409385888313408941e-05 1.181111001642420888e-04 4.688227272708900273e-05 9.674653119873255491e-05
5.655046086758375168e-03 9.931167587637901306e-04 3.317303955554962158e-03 1.256574323633685708e-04 7.492897566407918930e-04 8.266232907772064209e-05 3.870163054671138525e-04
2.902511507272720337e-03 9.378012036904692650e-04 1.681791502051055431e-03 8.239266753662377596e-05 7.546916458522900939e-05 5.618261275230906904e-05 6.887422932777553797e-05
2.289062365889549255e-03 6.779080722481012344e-04 1.466947374865412712e-03 3.720017775776796043e-05 9.936154128808993846e-06 4.976438867743127048e-05 4.730621731141582131e-05
8.322820067405700684e-03 2.149810781702399254e-03 4.238571971654891968e-03 5.435655475594103336e-04 9.200947242788970470e-04 1.938921050168573856e-04 2.768847916740924120e-04
2.367862034589052200e-03 7.339435978792607784e-04 1.495462958700954914e-03 2.928637150034774095e-05 1.971293022506870329e-05 3.825343810603953898e-05 5.120306741446256638e-05
2.206747187301516533e-03 6.396964890882372856e-04 1.448233262635767460e-03 1.169003644463373348e-05 2.219642556156031787e-05 3.503032712615095079e-05 4.990070374333299696e-05
2.126454608514904976e-03 6.171150016598403454e-04 1.427288982085883617e-03 2.687491132746799849e-06 4.263859864295227453e-06 3.258098149672150612e-05 4.251840437063947320e-05
2.175363013520836830e-03 6.609544507227838039e-04 1.420220592990517616e-03 1.140646782005205750e-05 7.236258170451037586e-06 3.319132520118728280e-05 4.235400774632580578e-05
6.054793950170278549e-03 1.661066897213459015e-03 2.804805990308523178e-03 4.017677274532616138e-04 6.574908038601279259e-04 1.919945498229935765e-04 3.376675595063716173e-04
2.096731914207339287e-03 6.160819903016090393e-04 1.403298811055719852e-03 2.609170223877299577e-06 4.591694960254244506e-06 3.045633093279320747e-05 3.969415047322399914e-05
3.467248287051916122e-03 8.960123523138463497e-04 2.081554848700761795e-03 1.222015125676989555e-04 2.156934642698615789e-04 6.260490044951438904e-05 8.918123057810589671e-05
2.207050332799553871e-03 6.811032653786242008e-04 1.411242643371224403e-03 3.273750189691781998e-05 6.235389264475088567e-06 3.561907942639663815e-05 4.011229611933231354e-05
6.485473364591598511e-03 1.850119675509631634e-03 2.772531937807798386e-03 6.030398071743547916e-04 6.445582839660346508e-04 2.805862168315798044e-04 3.346376179251819849e-04
2.384680090472102165e-03 6.294539780355989933e-04 1.571706030517816544e-03 2.516074346203822643e-05 6.241945084184408188e-05 4.002642890554852784e-05 5.591358058154582977e-05
2.084497828036546707e-03 6.132991984486579895e-04 1.392327598296105862e-03 5.394126219471218064e-06 6.670599304925417528e-06 2.974465314764529467e-05 3.706147981574758887e-05
2.121976809576153755e-03 6.356383673846721649e-04 1.381546957418322563e-03 2.346533801755867898e-05 7.966746125021018088e-06 3.506150096654891968e-05 3.829781780950725079e-05
2.124638296663761139e-03 6.249363650567829609e-04 1.407921779900789261e-03 7.896721399447415024e-06 1.495812830398790538e-05 2.875147765735164285e-05 4.017383253085426986e-05
2.064722357317805290e-03 5.924965953454375267e-04 1.391704077832400799e-03 4.195194378553424031e-06 9.338170457340311259e-06 2.959096491395030171e-05 3.739751991815865040e-05
5.200494546443223953e-03 2.425655955448746681e-03 1.458059530705213547e-03 8.378119091503322124e-04 4.146495848544873297e-05 3.876184346154332161e-04 4.988385990145616233e-05
2.504435833543539047e-03 9.256459306925535202e-04 1.359979272820055485e-03 1.204384898301213980e-04 8.387499292439315468e-06 5.240712562226690352e-05 3.757747253985144198e-05
1.781735103577375412e-03 6.149468244984745979e-04 1.112326513975858688e-03 7.733661732345353812e-06 9.989665159082505852e-06 2.029856841545552015e-05 1.643979885557200760e-05
1.624837052077054977e-03 5.690014804713428020e-04 1.012639026157557964e-03 2.670295998541405424e-06 5.274067007121630013e-06 2.222448347311001271e-05 1.302764849242521450e-05
1.446416135877370834e-03 5.588342901319265366e-04 8.417765493504703045e-04 4.057278601976577193e-06 7.439429282385390252e-06 1.230922043760074303e-05 2.199936716351658106e-05
1.281451666727662086e-03 5.215026321820914745e-04 7.191459299065172672e-04 4.846430783800315112e-06 3.347426172695122659e-06 2.370854053879156709e-05 8.900700777303427458e-06
1.122269430197775364e-03 5.060578114353120327e-04 5.783339147455990314e-04 5.131793841428589076e-06 6.304859653027961031e-06 1.214413805428193882e-05 1.429699750588042662e-05
1.024024095386266708e-03 4.714778915513306856e-04 5.297131137922406197e-04 2.246722942800261080e-06 9.284014481636404525e-07 1.344031988992355764e-05 6.217744612513342872e-06
9.151679114438593388e-04 4.344724875409156084e-04 4.592509940266609192e-04 6.546975782839581370e-06 1.888123506432748400e-06 5.682152277586283162e-06 7.327173079829663038e-06
8.457226213067770004e-04 3.919914015568792820e-04 4.386911168694496155e-04 1.457380449210177176e-06 7.105979875632328913e-07 8.540472663298714906e-06 4.331619493314065039e-06
7.921736105345189571e-04 3.616543253883719444e-04 4.200504627078771591e-04 2.551057832533842884e-06 5.054523626313311979e-07 3.462133008724777028e-06 3.950141945097129792e-06
